{
  "network": {
    "name": "ghostnet",
    "chainId": "NetXnHfVqm9iesp",
    "apiUrl": "https://{{network;env:dev:staging;env:staging:staging}}-api.tezos.domains/graphql",
    "blockIndexedTimeoutMs": 60000,
    "tzprofilesApiUrl": "https://indexer.tzprofiles.com/v1/graphql",
    "rewardsApiUrl": "https://governance-api.tezos.domains/v1/graphql",
    "rpcUrls": [
      {
        "name": "Tezos Commons",
        "url": "https://prod.tcinfra.net/rpc/mainnet",
        "enabled": "{{false;env:prod:true}}"
      },
      {
        "name": "SmartPy",
        "url": "https://{{network}}.smartpy.io",
        "enabled": "{{true;env:env:staging:false}}"
      },
      {
        "name": "ECAD Labs",
        "url": "https://{{network}}.api.tez.ie/",
        "enabled": "{{true;env:env:staging:false}}"
      },
      {
        "name": "Teztnets",
        "url": "https://rpc.{{network}}.teztnets.com/",
        "enabled": "{{true;env:prod:false}}"
      }
    ],
    "statsUrl": "https://{{network-short}}.tzstats.com",
    "youvesOracleContract": "KT1VdZ3vD24Sf7cdeyLAFxHZycy48KP9Nr7Y",
    "directBrokerContract": "KT1HavuWyozSXPzbmyUUpU6L92jagMQD28DT",
    "buyOfferBrokerContract": "KT19PZtLDGSBwErZSaQJEsL97n1koHmL8cF6",
    "oracleRegistrarContract": "KT1GBZDGVJ85Sg4t3ppjGiRn4382fPeo3f3T",
    "tokenContract": "KT1REqKBXwULnmU6RpZxnRBUgcBmESnXhCWs",
    "tedTokenContract": "KT1D7qiAd4sLVYtSUau9VPSxMAPNFXa3rJtg",
    "tedVotesContract": "KT1WNoqaFFN3cp3fZTaPY1uSuzT1xV51u1cq",
    "tedPoolContract": "KT1XTCRocWXr61HtsJFpi9dvKbYazMo7673C",
    "vestingContract": "KT1Em2ATRVD49Q4SaDsXFBw398hC8YtSuR9c",
    "confirmations": 2
  },
  "storageUrl": "https://storage.tezos.domains",
  "hardwareWallet": {
    "derivationPath": "44'/1729'/0'/0'"
  },
  "safeBalanceThreshold": 100000,
  "appName": "Tezos Domains",
  "landingPageUrl": "",
  "decentralizedWebsiteUrl": "https://{domain}.testing-tez.page",
  "tzprofilesAppUrl": "https://tzprofiles.com",
  "mailingApiUrl": "",
  "dnsVerifyApiUrl": "https://tezos-domains-oracle-registrar-staging.azurewebsites.net",
  "cookieDomain": "tezos.domains",
  "domainIsExpiringThreshold": {
    "time": 7,
    "units": "days"
  },
  "expiringDomainThreshold": {
    "time": 30,
    "units": "days"
  },
  "expiringDomainEarlyWarningThreshold": {
    "time": 90,
    "units": "days"
  },
  "minEventsFilterDate": "2021-04-01T00:00:00.000Z",
  "maxWebsiteDomainNameLength": 63,
  "allowImpersonation": true,
  "airdrop": {
    "delegates": [],
    "start": "2023-10-10T17:00:00.000Z",
    "end": "2024-12-31T00:00:00Z"
  },
  "governance": {
    "homebaseUrl": "https://tezos-homebase.io/explorer/lite/dao/6536c7151901bb3e1fe38d8d/community",
    "plentyUrl": "https://app.plenty.network/swap?from=XTZ&to=TED",
    "tedExchangeUrl": "https://price.tezos.domains",
    "showAverageApr": false
  },
  "maxBulkCreate": 40
}